_____/\\\\\\\\\_____/\\\________/\\\__/\\\\\\\\\\\\\\\_______/\\\\\_________________/\\\\____________/\\\\__/\\\\\\\\\\\\\\\__/\\\\\\\\\\\\____
 ___/\\\\\\\\\\\\\__\/\\\_______\/\\\_\///////\\\/////______/\\\///\\\______________\/\\\\\\________/\\\\\\_\/\\\///////////__\/\\\////////\\\__
  __/\\\/////////\\\_\/\\\_______\/\\\_______\/\\\_________/\\\/__\///\\\____________\/\\\//\\\____/\\\//\\\_\/\\\_____________\/\\\______\//\\\_
   _\/\\\_______\/\\\_\/\\\_______\/\\\_______\/\\\________/\\\______\//\\\___________\/\\\\///\\\/\\\/_\/\\\_\/\\\\\\\\\\\_____\/\\\_______\/\\\_
    _\/\\\\\\\\\\\\\\\_\/\\\_______\/\\\_______\/\\\_______\/\\\_______\/\\\___________\/\\\__\///\\\/___\/\\\_\/\\\///////______\/\\\_______\/\\\_
     _\/\\\/////////\\\_\/\\\_______\/\\\_______\/\\\_______\//\\\______/\\\____________\/\\\____\///_____\/\\\_\/\\\_____________\/\\\_______\/\\\_
      _\/\\\_______\/\\\_\//\\\______/\\\________\/\\\________\///\\\__/\\\______________\/\\\_____________\/\\\_\/\\\_____________\/\\\_______/\\\__
       _\/\\\_______\/\\\__\///\\\\\\\\\/_________\/\\\__________\///\\\\\/_______________\/\\\_____________\/\\\_\/\\\\\\\\\\\\\\\_\/\\\\\\\\\\\\/___
        _\///________\///_____\/////////___________\///_____________\/////_________________\///______________\///__\///////////////__\////////////_____